<?xml version="1.0" encoding="UTF-8" standalone="no"?>
<!-- Created with Inkscape (http://www.inkscape.org/) -->

<svg
   xmlns:dc="http://purl.org/dc/elements/1.1/"
   xmlns:cc="http://creativecommons.org/ns#"
   xmlns:rdf="http://www.w3.org/1999/02/22-rdf-syntax-ns#"
   xmlns:svg="http://www.w3.org/2000/svg"
   xmlns="http://www.w3.org/2000/svg"
   xmlns:sodipodi="http://sodipodi.sourceforge.net/DTD/sodipodi-0.dtd"
   xmlns:inkscape="http://www.inkscape.org/namespaces/inkscape"
   width="744.09448819"
   height="1052.3622047"
   id="svg2"
   version="1.1"
   inkscape:version="0.91 r13725"
   sodipodi:docname="depthFirstPostContra.svg">
  <sodipodi:namedview
     id="base"
     pagecolor="#ffffff"
     bordercolor="#666666"
     borderopacity="1.0"
     inkscape:pageopacity="0.0"
     inkscape:pageshadow="2"
     inkscape:zoom="5.6"
     inkscape:cx="-18.503753"
     inkscape:cy="897.1409"
     inkscape:document-units="px"
     inkscape:current-layer="layer1"
     showgrid="false"
     inkscape:window-width="2560"
     inkscape:window-height="1342"
     inkscape:window-x="0"
     inkscape:window-y="0"
     inkscape:window-maximized="1" />
  <defs
     id="defs4">
    <marker
       inkscape:stockid="EmptyDiamondLend"
       orient="auto"
       refY="0.0"
       refX="0.0"
       id="EmptyDiamondLend"
       style="overflow:visible">
      <path
         id="path3921"
         d="M 0,-7.0710768 L -7.0710894,0 L 0,7.0710589 L 7.0710462,0 L 0,-7.0710768 z "
         style="fill-rule:evenodd;fill:#FFFFFF;stroke:#000000;stroke-width:1.0pt"
         transform="scale(0.8) translate(-7,0)" />
    </marker>
    <marker
       inkscape:stockid="DiamondMend"
       orient="auto"
       refY="0.0"
       refX="0.0"
       id="DiamondMend"
       style="overflow:visible">
      <path
         id="path3897"
         d="M 0,-7.0710768 L -7.0710894,0 L 0,7.0710589 L 7.0710462,0 L 0,-7.0710768 z "
         style="fill-rule:evenodd;stroke:#000000;stroke-width:1.0pt"
         transform="scale(0.4) translate(-6.5,0)" />
    </marker>
    <marker
       style="overflow:visible;"
       id="Arrow2Lend"
       refX="0.0"
       refY="0.0"
       orient="auto"
       inkscape:stockid="Arrow2Lend">
      <path
         transform="scale(1.1) rotate(180) translate(1,0)"
         d="M 8.7185878,4.0337352 L -2.2072895,0.016013256 L 8.7185884,-4.0017078 C 6.9730900,-1.6296469 6.9831476,1.6157441 8.7185878,4.0337352 z "
         style="fill-rule:evenodd;stroke-width:0.62500000;stroke-linejoin:round;"
         id="path3818" />
    </marker>
    <marker
       style="overflow:visible;"
       id="Arrow1Mend"
       refX="0.0"
       refY="0.0"
       orient="auto"
       inkscape:stockid="Arrow1Mend">
      <path
         transform="scale(0.4) rotate(180) translate(10,0)"
         style="fill-rule:evenodd;stroke:#000000;stroke-width:1.0pt;"
         d="M 0.0,0.0 L 5.0,-5.0 L -12.5,0.0 L 5.0,5.0 L 0.0,0.0 z "
         id="path3806" />
    </marker>
    <marker
       style="overflow:visible;"
       id="Arrow1Lend"
       refX="0.0"
       refY="0.0"
       orient="auto"
       inkscape:stockid="Arrow1Lend">
      <path
         transform="scale(0.8) rotate(180) translate(12.5,0)"
         style="fill-rule:evenodd;stroke:#000000;stroke-width:1.0pt;"
         d="M 0.0,0.0 L 5.0,-5.0 L -12.5,0.0 L 5.0,5.0 L 0.0,0.0 z "
         id="path3800" />
    </marker>
    <marker
       style="overflow:visible;"
       id="Arrow2Lendg"
       refX="0.0"
       refY="0.0"
       orient="auto"
       inkscape:stockid="Arrow2Lendg">
      <path
         transform="scale(1.1) rotate(180) translate(1,0)"
         d="M 8.7185878,4.0337352 L -2.2072895,0.016013256 L 8.7185884,-4.0017078 C 6.9730900,-1.6296469 6.9831476,1.6157441 8.7185878,4.0337352 z "
         style="stroke-linejoin:round;stroke:#a05a2c;stroke-width:0.62500000;fill:#a05a2c;fill-rule:evenodd"
         id="path4796" />
    </marker>
    <marker
       inkscape:stockid="EmptyDiamondLendF"
       orient="auto"
       refY="0.0"
       refX="0.0"
       id="EmptyDiamondLendF"
       style="overflow:visible">
      <path
         id="path5365"
         d="M 0,-7.0710768 L -7.0710894,0 L 0,7.0710589 L 7.0710462,0 L 0,-7.0710768 z "
         style="stroke-width:1.0pt;stroke:#a05a2c;fill:#a05a2c;fill-rule:evenodd"
         transform="scale(0.8) translate(-7,0)" />
    </marker>
    <marker
       inkscape:stockid="EmptyDiamondLendFS"
       orient="auto"
       refY="0.0"
       refX="0.0"
       id="EmptyDiamondLendFS"
       style="overflow:visible">
      <path
         id="path5474"
         d="M 0,-7.0710768 L -7.0710894,0 L 0,7.0710589 L 7.0710462,0 L 0,-7.0710768 z "
         style="fill-rule:evenodd;stroke:#a05a2c;stroke-width:1.0pt;fill:#a05a2c"
         transform="scale(0.8) translate(-7,0)" />
    </marker>
    <marker
       style="overflow:visible;"
       id="Arrow2Lendl"
       refX="0.0"
       refY="0.0"
       orient="auto"
       inkscape:stockid="Arrow2Lendl">
      <path
         transform="scale(1.1) rotate(180) translate(1,0)"
         d="M 8.7185878,4.0337352 L -2.2072895,0.016013256 L 8.7185884,-4.0017078 C 6.9730900,-1.6296469 6.9831476,1.6157441 8.7185878,4.0337352 z "
         style="stroke-linejoin:round;stroke:#803300;stroke-width:0.62500000;fill:#803300;fill-rule:evenodd"
         id="path4186" />
    </marker>
    <marker
       style="overflow:visible"
       id="Arrow2Lendl-3"
       refX="0"
       refY="0"
       orient="auto"
       inkscape:stockid="Arrow2Lendl">
      <path
         transform="matrix(-1.1,0,0,-1.1,-1.1,0)"
         d="M 8.7185878,4.0337352 -2.2072895,0.01601326 8.7185884,-4.0017078 c -1.7454984,2.3720609 -1.7354408,5.6174519 -6e-7,8.035443 z"
         style="fill:#803300;fill-rule:evenodd;stroke:#803300;stroke-width:0.625;stroke-linejoin:round"
         id="path4186-3"
         inkscape:connector-curvature="0" />
    </marker>
    <marker
       style="overflow:visible"
       id="Arrow2Lendl-5"
       refX="0"
       refY="0"
       orient="auto"
       inkscape:stockid="Arrow2Lendl">
      <path
         transform="matrix(-1.1,0,0,-1.1,-1.1,0)"
         d="M 8.7185878,4.0337352 -2.2072895,0.01601326 8.7185884,-4.0017078 c -1.7454984,2.3720609 -1.7354408,5.6174519 -6e-7,8.035443 z"
         style="fill:#803300;fill-rule:evenodd;stroke:#803300;stroke-width:0.625;stroke-linejoin:round"
         id="path4186-7"
         inkscape:connector-curvature="0" />
    </marker>
    <marker
       style="overflow:visible;"
       id="Arrow1MendO"
       refX="0.0"
       refY="0.0"
       orient="auto"
       inkscape:stockid="Arrow1MendO">
      <path
         transform="scale(0.4) rotate(180) translate(10,0)"
         style="stroke:#803300;stroke-width:1.0pt;fill:#803300;fill-rule:evenodd"
         d="M 0.0,0.0 L 5.0,-5.0 L -12.5,0.0 L 5.0,5.0 L 0.0,0.0 z "
         id="path5790" />
    </marker>
    <marker
       style="overflow:visible"
       id="Arrow2Lendl-4"
       refX="0"
       refY="0"
       orient="auto"
       inkscape:stockid="Arrow2Lendl">
      <path
         inkscape:connector-curvature="0"
         transform="matrix(-1.1,0,0,-1.1,-1.1,0)"
         d="M 8.7185878,4.0337352 -2.2072895,0.01601326 8.7185884,-4.0017078 c -1.7454984,2.3720609 -1.7354408,5.6174519 -6e-7,8.035443 z"
         style="fill:#803300;fill-rule:evenodd;stroke:#803300;stroke-width:0.625;stroke-linejoin:round"
         id="path4186-5" />
    </marker>
    <marker
       style="overflow:visible"
       id="Arrow2Lendl-56"
       refX="0"
       refY="0"
       orient="auto"
       inkscape:stockid="Arrow2Lendl">
      <path
         inkscape:connector-curvature="0"
         transform="matrix(-1.1,0,0,-1.1,-1.1,0)"
         d="M 8.7185878,4.0337352 -2.2072895,0.01601326 8.7185884,-4.0017078 c -1.7454984,2.3720609 -1.7354408,5.6174519 -6e-7,8.035443 z"
         style="fill:#803300;fill-rule:evenodd;stroke:#803300;stroke-width:0.625;stroke-linejoin:round"
         id="path4186-0" />
    </marker>
    <marker
       style="overflow:visible"
       id="Arrow2Lendl-9"
       refX="0"
       refY="0"
       orient="auto"
       inkscape:stockid="Arrow2Lendl">
      <path
         inkscape:connector-curvature="0"
         transform="matrix(-1.1,0,0,-1.1,-1.1,0)"
         d="M 8.7185878,4.0337352 -2.2072895,0.01601326 8.7185884,-4.0017078 c -1.7454984,2.3720609 -1.7354408,5.6174519 -6e-7,8.035443 z"
         style="fill:#803300;fill-rule:evenodd;stroke:#803300;stroke-width:0.625;stroke-linejoin:round"
         id="path4186-1" />
    </marker>
    <marker
       style="overflow:visible"
       id="Arrow2Lendl-1"
       refX="0"
       refY="0"
       orient="auto"
       inkscape:stockid="Arrow2Lendl">
      <path
         inkscape:connector-curvature="0"
         transform="matrix(-1.1,0,0,-1.1,-1.1,0)"
         d="M 8.7185878,4.0337352 -2.2072895,0.01601326 8.7185884,-4.0017078 c -1.7454984,2.3720609 -1.7354408,5.6174519 -6e-7,8.035443 z"
         style="fill:#803300;fill-rule:evenodd;stroke:#803300;stroke-width:0.625;stroke-linejoin:round"
         id="path4186-74" />
    </marker>
    <marker
       style="overflow:visible"
       id="Arrow2Lendl-94"
       refX="0"
       refY="0"
       orient="auto"
       inkscape:stockid="Arrow2Lendl">
      <path
         inkscape:connector-curvature="0"
         transform="matrix(-1.1,0,0,-1.1,-1.1,0)"
         d="M 8.7185878,4.0337352 -2.2072895,0.01601326 8.7185884,-4.0017078 c -1.7454984,2.3720609 -1.7354408,5.6174519 -6e-7,8.035443 z"
         style="fill:#803300;fill-rule:evenodd;stroke:#803300;stroke-width:0.625;stroke-linejoin:round"
         id="path4186-4" />
    </marker>
    <marker
       style="overflow:visible;"
       id="Arrow1MendH"
       refX="0.0"
       refY="0.0"
       orient="auto"
       inkscape:stockid="Arrow1MendH">
      <path
         transform="scale(0.4) rotate(180) translate(10,0)"
         style="stroke:#803300;stroke-width:1.0pt;fill:#803300;fill-rule:evenodd"
         d="M 0.0,0.0 L 5.0,-5.0 L -12.5,0.0 L 5.0,5.0 L 0.0,0.0 z "
         id="path6369" />
    </marker>
    <marker
       style="overflow:visible"
       id="Arrow1MendH-7"
       refX="0"
       refY="0"
       orient="auto"
       inkscape:stockid="Arrow1MendH">
      <path
         transform="matrix(-0.4,0,0,-0.4,-4,0)"
         style="fill:#803300;fill-rule:evenodd;stroke:#803300;stroke-width:1pt"
         d="M 0,0 5,-5 -12.5,0 5,5 0,0 z"
         id="path6369-6"
         inkscape:connector-curvature="0" />
    </marker>
    <marker
       style="overflow:visible"
       id="Arrow1MendH-72"
       refX="0"
       refY="0"
       orient="auto"
       inkscape:stockid="Arrow1MendH">
      <path
         transform="matrix(-0.4,0,0,-0.4,-4,0)"
         style="fill:#803300;fill-rule:evenodd;stroke:#803300;stroke-width:1pt"
         d="M 0,0 5,-5 -12.5,0 5,5 0,0 z"
         id="path6369-8"
         inkscape:connector-curvature="0" />
    </marker>
    <marker
       style="overflow:visible"
       id="Arrow1MendH-8"
       refX="0"
       refY="0"
       orient="auto"
       inkscape:stockid="Arrow1MendH">
      <path
         transform="matrix(-0.4,0,0,-0.4,-4,0)"
         style="fill:#803300;fill-rule:evenodd;stroke:#803300;stroke-width:1pt"
         d="M 0,0 5,-5 -12.5,0 5,5 0,0 z"
         id="path6369-7"
         inkscape:connector-curvature="0" />
    </marker>
    <marker
       style="overflow:visible"
       id="Arrow1MendH-6"
       refX="0"
       refY="0"
       orient="auto"
       inkscape:stockid="Arrow1MendH">
      <path
         transform="matrix(-0.4,0,0,-0.4,-4,0)"
         style="fill:#803300;fill-rule:evenodd;stroke:#803300;stroke-width:1pt"
         d="M 0,0 5,-5 -12.5,0 5,5 0,0 z"
         id="path6369-2"
         inkscape:connector-curvature="0" />
    </marker>
    <marker
       style="overflow:visible"
       id="Arrow1MendH-2"
       refX="0"
       refY="0"
       orient="auto"
       inkscape:stockid="Arrow1MendH">
      <path
         transform="matrix(-0.4,0,0,-0.4,-4,0)"
         style="fill:#803300;fill-rule:evenodd;stroke:#803300;stroke-width:1pt"
         d="M 0,0 5,-5 -12.5,0 5,5 0,0 z"
         id="path6369-1"
         inkscape:connector-curvature="0" />
    </marker>
    <marker
       style="overflow:visible"
       id="Arrow1MendH-5"
       refX="0"
       refY="0"
       orient="auto"
       inkscape:stockid="Arrow1MendH">
      <path
         transform="matrix(-0.4,0,0,-0.4,-4,0)"
         style="fill:#803300;fill-rule:evenodd;stroke:#803300;stroke-width:1pt"
         d="M 0,0 5,-5 -12.5,0 5,5 0,0 z"
         id="path6369-88"
         inkscape:connector-curvature="0" />
    </marker>
    <marker
       style="overflow:visible"
       id="Arrow2Lendl-0"
       refX="0"
       refY="0"
       orient="auto"
       inkscape:stockid="Arrow2Lendl">
      <path
         transform="matrix(-1.1,0,0,-1.1,-1.1,0)"
         d="M 8.7185878,4.0337352 -2.2072895,0.01601326 8.7185884,-4.0017078 c -1.7454984,2.3720609 -1.7354408,5.6174519 -6e-7,8.035443 z"
         style="fill:#803300;fill-rule:evenodd;stroke:#803300;stroke-width:0.625;stroke-linejoin:round"
         id="path4186-71"
         inkscape:connector-curvature="0" />
    </marker>
    <marker
       style="overflow:visible"
       id="Arrow1MendH-60"
       refX="0"
       refY="0"
       orient="auto"
       inkscape:stockid="Arrow1MendH">
      <path
         transform="matrix(-0.4,0,0,-0.4,-4,0)"
         style="fill:#803300;fill-rule:evenodd;stroke:#803300;stroke-width:1pt"
         d="M 0,0 5,-5 -12.5,0 5,5 0,0 z"
         id="path6369-68"
         inkscape:connector-curvature="0" />
    </marker>
    <marker
       style="overflow:visible;"
       id="Arrow1Mendw"
       refX="0.0"
       refY="0.0"
       orient="auto"
       inkscape:stockid="Arrow1Mendw">
      <path
         transform="scale(0.4) rotate(180) translate(10,0)"
         style="stroke:#ff7f2a;stroke-width:1.0pt;fill:#ff7f2a;fill-rule:evenodd"
         d="M 0.0,0.0 L 5.0,-5.0 L -12.5,0.0 L 5.0,5.0 L 0.0,0.0 z "
         id="path4369" />
    </marker>
    <marker
       style="overflow:visible"
       id="Arrow1Mendw-1"
       refX="0"
       refY="0"
       orient="auto"
       inkscape:stockid="Arrow1Mendw">
      <path
         inkscape:connector-curvature="0"
         transform="matrix(-0.4,0,0,-0.4,-4,0)"
         style="fill:#ff7f2a;fill-rule:evenodd;stroke:#ff7f2a;stroke-width:1pt"
         d="M 0,0 5,-5 -12.5,0 5,5 0,0 z"
         id="path4369-4" />
    </marker>
    <marker
       style="overflow:visible"
       id="Arrow1Mendw-3"
       refX="0"
       refY="0"
       orient="auto"
       inkscape:stockid="Arrow1Mendw">
      <path
         inkscape:connector-curvature="0"
         transform="matrix(-0.4,0,0,-0.4,-4,0)"
         style="fill:#ff7f2a;fill-rule:evenodd;stroke:#ff7f2a;stroke-width:1pt"
         d="M 0,0 5,-5 -12.5,0 5,5 0,0 z"
         id="path4369-40" />
    </marker>
    <marker
       style="overflow:visible"
       id="EmptyTriangleInL-7"
       refX="0"
       refY="0"
       orient="auto"
       inkscape:stockid="EmptyTriangleInL">
      <path
         inkscape:connector-curvature="0"
         transform="matrix(-0.8,0,0,-0.8,4.8,0)"
         style="fill:#ffffff;fill-rule:evenodd;stroke:#000000;stroke-width:1pt"
         d="m 5.77,0 -8.65,5 0,-10 8.65,5 z"
         id="path4202-8" />
    </marker>
  </defs>
  <metadata
     id="metadata7">
    <rdf:RDF>
      <cc:Work
         rdf:about="">
        <dc:format>image/svg+xml</dc:format>
        <dc:type
           rdf:resource="http://purl.org/dc/dcmitype/StillImage" />
        <dc:title />
      </cc:Work>
    </rdf:RDF>
  </metadata>
  <g
     id="layer1"
     inkscape:groupmode="layer"
     inkscape:label="Layer 1">
    <text
       sodipodi:linespacing="125%"
       id="text3763"
       y="171.35896"
       x="72.28981"
       style="font-size:20px;font-style:normal;font-weight:normal;line-height:125%;letter-spacing:0px;word-spacing:0px;fill:#212178;fill-opacity:1;stroke:none;font-family:Sans"
       xml:space="preserve"><tspan
         style="font-style:normal;font-variant:normal;font-weight:normal;font-stretch:normal;fill:#212178;font-family:Verdana;-inkscape-font-specification:Verdana"
         y="171.35896"
         x="72.28981"
         id="tspan3765"
         sodipodi:role="line">C</tspan></text>
    <text
       sodipodi:linespacing="125%"
       id="text3763-7"
       y="137.22198"
       x="11.649463"
       style="font-size:20px;font-style:normal;font-weight:normal;line-height:125%;letter-spacing:0px;word-spacing:0px;fill:#212178;fill-opacity:1;stroke:none;font-family:Sans"
       xml:space="preserve"><tspan
         style="font-style:normal;font-variant:normal;font-weight:normal;font-stretch:normal;fill:#212178;font-family:Verdana;-inkscape-font-specification:Verdana"
         y="137.22198"
         x="11.649463"
         id="tspan3765-3"
         sodipodi:role="line">B</tspan></text>
    <text
       sodipodi:linespacing="125%"
       id="text3763-7-8"
       y="193.0199"
       x="39.607197"
       style="font-size:20px;font-style:normal;font-weight:normal;line-height:125%;letter-spacing:0px;word-spacing:0px;fill:#212178;fill-opacity:1;stroke:none;font-family:Sans"
       xml:space="preserve"><tspan
         style="font-style:normal;font-variant:normal;font-weight:normal;font-stretch:normal;fill:#212178;font-family:Verdana;-inkscape-font-specification:Verdana"
         y="193.0199"
         x="39.607197"
         id="tspan3765-3-7"
         sodipodi:role="line">A</tspan></text>
    <g
       id="text4413"
       style="font-size:20px;font-style:normal;font-weight:normal;line-height:125%;letter-spacing:0px;word-spacing:0px;fill:#000000;fill-opacity:1;stroke:none;font-family:Sans" />
    <path
       style="fill:#803300;stroke:#000000;stroke-width:1;stroke-linecap:butt;stroke-linejoin:miter;stroke-opacity:1;marker-start:url(#EmptyTriangleInL-7);stroke-miterlimit:4;stroke-dasharray:none"
       d="M 17.379583,139.75391 42.07445,182.07533"
       id="path3150-8"
       inkscape:connector-curvature="0"
       sodipodi:nodetypes="cc" />
    <path
       style="fill:#803300;stroke:#000000;stroke-width:1;stroke-linecap:butt;stroke-linejoin:miter;stroke-opacity:1;marker-start:url(#EmptyTriangleInL-7);stroke-miterlimit:4;stroke-dasharray:none"
       d="M 71.19414,167.13573 50.845474,181.61276"
       id="path3150-8-1"
       inkscape:connector-curvature="0"
       sodipodi:nodetypes="cc" />
    <path
       style="fill:#803300;stroke:#000000;stroke-width:1;stroke-linecap:butt;stroke-linejoin:miter;stroke-miterlimit:4;stroke-dasharray:none;stroke-opacity:1;marker-start:url(#EmptyTriangleInL-7)"
       d="m 41.203773,101.01146 53.89589,21.49995"
       id="path3150-8-0"
       inkscape:connector-curvature="0"
       sodipodi:nodetypes="cc" />
    <path
       style="fill:#803300;stroke:#000000;stroke-width:1;stroke-linecap:butt;stroke-linejoin:miter;stroke-opacity:1;marker-start:url(#EmptyTriangleInL-7);stroke-miterlimit:4;stroke-dasharray:none"
       d="M 67.969664,102.03975 19.628817,122.39689"
       id="path3150-8-1-0"
       inkscape:connector-curvature="0"
       sodipodi:nodetypes="cc" />
    <text
       sodipodi:linespacing="125%"
       id="text3763-9"
       y="137.22198"
       x="52.09668"
       style="font-size:20px;font-style:normal;font-weight:normal;line-height:125%;letter-spacing:0px;word-spacing:0px;fill:#212178;fill-opacity:1;stroke:none;font-family:Sans"
       xml:space="preserve"><tspan
         style="font-style:normal;font-variant:normal;font-weight:normal;font-stretch:normal;fill:#212178;font-family:Verdana;-inkscape-font-specification:Verdana"
         y="137.22198"
         x="52.09668"
         id="tspan3765-7"
         sodipodi:role="line">D</tspan></text>
    <path
       sodipodi:nodetypes="cc"
       style="fill:none;stroke:#000000;stroke-width:1px;stroke-linecap:butt;stroke-linejoin:miter;stroke-opacity:1;marker-start:url(#EmptyTriangleInL-7)"
       d="m 61.654095,139.5389 12.32142,18.03571"
       id="path6115"
       inkscape:connector-curvature="0" />
    <text
       sodipodi:linespacing="125%"
       id="text3763-9-9"
       y="137.22198"
       x="93.08287"
       style="font-size:20px;font-style:normal;font-weight:normal;line-height:125%;letter-spacing:0px;word-spacing:0px;fill:#212178;fill-opacity:1;stroke:none;font-family:Sans"
       xml:space="preserve"><tspan
         style="font-style:normal;font-variant:normal;font-weight:normal;font-stretch:normal;fill:#212178;font-family:Verdana;-inkscape-font-specification:Verdana"
         y="137.22198"
         x="93.08287"
         id="tspan3765-7-6"
         sodipodi:role="line">E</tspan></text>
    <text
       sodipodi:linespacing="125%"
       id="text3763-9-4"
       y="102.0455"
       x="30.190012"
       style="font-size:20px;font-style:normal;font-weight:normal;line-height:125%;letter-spacing:0px;word-spacing:0px;fill:#212178;fill-opacity:1;stroke:none;font-family:Sans"
       xml:space="preserve"><tspan
         style="font-style:normal;font-variant:normal;font-weight:normal;font-stretch:normal;fill:#212178;font-family:Verdana;-inkscape-font-specification:Verdana"
         y="102.0455"
         x="30.190012"
         id="tspan3765-7-8"
         sodipodi:role="line">F</tspan></text>
    <text
       sodipodi:linespacing="125%"
       id="text3763-9-6"
       y="102.03574"
       x="67.261429"
       style="font-size:20px;font-style:normal;font-weight:normal;line-height:125%;letter-spacing:0px;word-spacing:0px;fill:#212178;fill-opacity:1;stroke:none;font-family:Sans"
       xml:space="preserve"><tspan
         style="font-style:normal;font-variant:normal;font-weight:normal;font-stretch:normal;fill:#212178;font-family:Verdana;-inkscape-font-specification:Verdana"
         y="102.03574"
         x="67.261429"
         id="tspan3765-7-1"
         sodipodi:role="line">G</tspan></text>
    <path
       sodipodi:nodetypes="cc"
       style="fill:none;stroke:#000000;stroke-width:1px;stroke-linecap:butt;stroke-linejoin:miter;stroke-opacity:1;marker-start:url(#EmptyTriangleInL-7)"
       d="m 30.745641,102.98062 -14.82143,18.57142"
       id="path6115-5"
       inkscape:connector-curvature="0" />
    <path
       sodipodi:nodetypes="cc"
       style="fill:none;stroke:#000000;stroke-width:1px;stroke-linecap:butt;stroke-linejoin:miter;stroke-opacity:1;marker-start:url(#EmptyTriangleInL-7)"
       d="M 74.760254,103.71876 59.760253,123.00447"
       id="path6115-9"
       inkscape:connector-curvature="0" />
    <path
       style="fill:#803300;stroke:#000000;stroke-width:1;stroke-linecap:butt;stroke-linejoin:miter;stroke-opacity:1;marker-start:url(#EmptyTriangleInL-7);stroke-miterlimit:4;stroke-dasharray:none"
       d="M 96.991455,139.15 85.39279,156.12703"
       id="path3150-8-1-9"
       inkscape:connector-curvature="0"
       sodipodi:nodetypes="cc" />
    <path
       sodipodi:nodetypes="cc"
       style="fill:none;stroke:#803300;stroke-width:0;stroke-linecap:butt;stroke-linejoin:miter;stroke-opacity:1;marker-end:url(#Arrow1MendH);stroke-miterlimit:4;stroke-dasharray:0,0;stroke-dashoffset:0"
       d="M -16.347604,169.77084 -1.5261742,151.19942"
       id="path6115-5-7"
       inkscape:connector-curvature="0" />
    <path
       sodipodi:nodetypes="ccc"
       inkscape:connector-curvature="0"
       id="path4059"
       d="m 30.17857,111.11218 11.428573,-16.785716 24.642857,0"
       style="fill:none;stroke:#ff7f2a;stroke-width:1;stroke-linecap:butt;stroke-linejoin:miter;stroke-miterlimit:4;stroke-opacity:1;stroke-dasharray:2, 1;stroke-dashoffset:0;marker-end:url(#Arrow1Mendw)" />
    <path
       sodipodi:nodetypes="ccc"
       inkscape:connector-curvature="0"
       id="path4059-0"
       d="m 25.517857,144.86218 -0.04797,-9.41823 43.262254,25.8468"
       style="fill:none;stroke:#ff7f2a;stroke-width:1;stroke-linecap:butt;stroke-linejoin:miter;stroke-miterlimit:4;stroke-opacity:1;stroke-dasharray:2, 1;stroke-dashoffset:0;marker-end:url(#Arrow1Mendw)" />
    <path
       sodipodi:nodetypes="ccc"
       inkscape:connector-curvature="0"
       id="path4059-8"
       d="m 68.196429,139.32647 -0.696429,-10 24.625001,0.35714"
       style="fill:none;stroke:#ff7f2a;stroke-width:1;stroke-linecap:butt;stroke-linejoin:miter;stroke-miterlimit:4;stroke-opacity:1;stroke-dasharray:2, 1;stroke-dashoffset:0;marker-end:url(#Arrow1Mendw)" />
  </g>
</svg>
